A global database on animal biodiversity measured in different grazing treatments
…
Most common grazers

## Split by semi-colon
unnestGraze <- studyData %>%   unnest(herbivores = strsplit(herbivores, ";"))
## Summarize by each class
herbsum <- unnestGraze %>% group_by(herbivores) %>% summarize(n=length(herbivores)) %>% filter(!is.na(herbivores)) 

topherb <- herbsum %>% top_n(20) %>% arrange(-n) ## select 10 most commonly surveyed
topherb

## # A tibble: 24 x 2
##    herbivores     n
##    <chr>      <int>
##  1 cattle       164
##  2 sheep         83
##  3 horses        21
##  4 goats         18
##  5 reindeer      12
##  6 rodents       11
##  7 rabbits       10
##  8 red deer      10
##  9 mule deer      8
## 10 rodentia       8
## # ... with 14 more rows
…
